%YAML 1.1
%TAG !u! tag:unity3d.com,2011:
--- !u!221 &22100000
AnimatorOverrideController:
  m_ObjectHideFlags: 0
  m_CorrespondingSourceObject: {fileID: 0}
  m_PrefabInstance: {fileID: 0}
  m_PrefabAsset: {fileID: 0}
  m_Name: Ninja - Right
  m_Controller: {fileID: 9100000, guid: 02371827fce6bdd4abd806d8326eff7a, type: 2}
  m_Clips:
  - m_OriginalClip: {fileID: 7400000, guid: 326ae2eef620b7345968285a7fc4a660, type: 2}
    m_OverrideClip: {fileID: 7400000, guid: a785b1bbdac3f9f4a92f74137367294c, type: 2}
  - m_OriginalClip: {fileID: 7400000, guid: 7f0dc6e8f6048974f88befa1b714dbb3, type: 2}
    m_OverrideClip: {fileID: 7400000, guid: 9682941ff10d8c74e829da0ec95c513e, type: 2}
  - m_OriginalClip: {fileID: 7400000, guid: be23ff698f4e1cf46b0153d54f06480f, type: 2}
    m_OverrideClip: {fileID: 7400000, guid: 1c521d7b036bab245b17311522cdfb3e, type: 2}
